ITEM NO.,PART NUMBER,DESCRIPTION,SW-Configuration Name(Configuration Name),LENGTH,QTY.
1,frameWithPlywood,,twopost,,3
1.1,  spinedFrame,,all 2x4<As Machined>,,1
1.1.1,    ,LUMBER 2 X 4,all 2x4<As Machined>,96,2
1.1.2,    ,LUMBER 2 X 4,all 2x4<As Machined>,93,3
1.1.3,    ,LUMBER 2 X 4,all 2x4<As Machined>,45.75,18
1.2,  plywood_23-32,,twopost,,2
2,topFloorRailingPost,,Default<As Machined>,,4
2.1,  ,LUMBER 4 X 4,Default<As Machined>,192,1
2.2,  ,LUMBER 4 X 4,Default<As Machined>,96,1
2.3,  ,LUMBER 4 X 4,Default<As Machined>,188.2,1
2.4,  ,LUMBER 4 X 4,Default<As Machined>,48,1
3,wallPost,,Default<As Machined>,,4
3.1,  ,LUMBER 4 X 4,Default<As Machined>,192,2
3.2,  ,LUMBER 4 X 4,Default<As Machined>,96,1
3.3,  ,LUMBER 4 X 4,Default<As Machined>,144,1
4,midFloorRailingPost,,Default<As Machined>,,12
4.1,  ,LUMBER 4 X 4,Default<As Machined>,164,1
5,frameWithPlywood,,strong_twopost,,1
5.1,  spinedFrame,,strong<As Machined>,,1
5.1.1,    ,LUMBER 2 X 8,strong<As Machined>,96,2
5.1.2,    ,LUMBER 2 X 6,strong<As Machined>,93,2
5.1.3,    ,LUMBER 2 X 4,strong<As Machined>,45.75,17
5.1.4,    ,LUMBER 2 X 8,strong<As Machined>,93,1
5.1.5,    ,LUMBER 2 X 4,strong<As Machined>,96,1
5.1.6,    ,LUMBER 2 X 4,strong<As Machined>,45.75,1
5.2,  plywood_23-32,,twopost,,2
5.3,  crossBrace,,sidesupportright,,4
5.4,  crossBrace,,sidesupportleft,,4
6,frameWithPlywood,,trapdoor,,1
6.1,  spinedFrame,,trapdoor<As Machined>,,1
6.1.1,    ,LUMBER 2 X 8,trapdoor<As Machined>,96,2
6.1.2,    ,LUMBER 2 X 6,trapdoor<As Machined>,93,2
6.1.3,    ,LUMBER 2 X 4,trapdoor<As Machined>,45.75,14
6.1.4,    ,LUMBER 2 X 6,trapdoor<As Machined>,37,1
6.1.5,    ,LUMBER 2 X 4,trapdoor<As Machined>,16.75,3
6.1.6,    ,LUMBER 2 X 8,trapdoor<As Machined>,93,1
6.1.7,    ,LUMBER 2 X 4,trapdoor<As Machined>,30,2
6.1.8,    ,LUMBER 2 X 4,trapdoor<As Machined>,96,1
6.1.9,    ,LUMBER 2 X 4,trapdoor<As Machined>,45.75,1
6.2,  plywood_23-32,,twopost,,1
6.3,  plywood_23-32,,trapdoor,,1
6.4,  crossBrace,,sidesupportright,,2
6.5,  crossBrace,crossBrace,Default,,3
6.6,  crossBrace,,sidesupportleft,,3
6.7,  trapdoor,,Default<As Machined>,,1
6.7.1,    ,LUMBER 2 X 4,Default<As Machined>,28,2
6.7.2,    ,,Default<As Machined>,,1
6.7.3,    ,LUMBER 2 X 4,Default<As Machined>,24,6
7,frameWithPlywood,,strong_twopost_wall,,2
7.1,  spinedFrame,,strong<As Machined>,,1
7.1.1,    ,LUMBER 2 X 8,strong<As Machined>,96,2
7.1.2,    ,LUMBER 2 X 6,strong<As Machined>,93,2
7.1.3,    ,LUMBER 2 X 4,strong<As Machined>,45.75,17
7.1.4,    ,LUMBER 2 X 8,strong<As Machined>,93,1
7.1.5,    ,LUMBER 2 X 4,strong<As Machined>,96,1
7.1.6,    ,LUMBER 2 X 4,strong<As Machined>,45.75,1
7.2,  plywood_23-32,,onepost,,1
7.3,  plywood_23-32,,twopost,,1
7.4,  crossBrace,,sidesupportright,,2
7.5,  crossBrace,,sidesupportleft,,2
7.6,  crossBrace,,sidesupportboth,,2
8,frameWithPlywood,,onepost,,2
8.1,  spinedFrame,,all 2x4<As Machined>,,1
8.1.1,    ,LUMBER 2 X 4,all 2x4<As Machined>,96,2
8.1.2,    ,LUMBER 2 X 4,all 2x4<As Machined>,93,3
8.1.3,    ,LUMBER 2 X 4,all 2x4<As Machined>,45.75,18
8.2,  plywood_23-32,,onepost,,2
9,railing,,topInner<As Machined>,,11
9.1,  ,LUMBER 2 X 4,topInner<As Machined>,94.5,3
9.2,  ,LUMBER 1 X 3,topInner<As Machined>,48,16
9.3,  ,LUMBER 2 X 4,topInner<As Machined>,92.5,1
10,railing,,topOuter<As Machined>,,2
10.1,  ,LUMBER 2 X 4,topOuter<As Machined>,94.5,4
10.2,  ,LUMBER 1 X 3,topOuter<As Machined>,48,16
11,topAnchor,,Default<As Machined>,,1
11.1,  ,LUMBER 4 X 4,Default<As Machined>,93,4
11.2,  ,LUMBER 2 X 4,Default<As Machined>,33.94,4
11.3,  ,LUMBER 4 X 4,Default<As Machined>,84,3
12,stairs,,Default,,1
12.1,  stringer,2x12x16',Default,,3
12.2,  Riser,,Riser,,15
12.3,  Tread,,Tread,,14
12.4,  topStairLanding,,Default<As Machined>,,2
12.4.1,    ,LUMBER 2 X 4,Default<As Machined>,36,2
12.4.2,    ,,Default<As Machined>,,1
12.4.3,    ,LUMBER 2 X 4,Default<As Machined>,40,7
12.5,  stairSupport,,Default<As Machined>,,56
12.5.1,    ,LUMBER 2 X 4,Default<As Machined>,15.75,1
12.6,  stairPosts,,Top Landing Extended,,2
12.6.1,    ,LUMBER 4 X 4,Top Landing Extended,169.19,1
12.7,  stairPosts,,Mid Railing,,1
12.7.1,    ,LUMBER 4 X 4,Mid Railing,112,1
12.8,  stairPosts,,Bottom Railing,,1
12.8.1,    ,LUMBER 4 X 4,Bottom Railing,58.19,1
12.9,  StairFootGaurd,,Default<As Machined>,,2
12.9.1,    ,LUMBER 2 X 6,Default<As Machined>,182.83,1
12.10,  diagonalRailing,,Default<As Machined>,,1
12.10.1,    ,LUMBER 2 X 4,Default<As Machined>,179.5,3
12.10.2,    ,LUMBER 1 X 3,Default<As Machined>,43,29
12.11,  Copy of MirrordiagonalRailing^stairs,,Default<As Machined>,,1
12.12,  railing,,Shorter,,1
12.12.1,    ,LUMBER 2 X 4,Shorter,53,3
12.12.2,    ,LUMBER 1 X 3,Shorter,48,8
12.12.3,    ,LUMBER 2 X 4,Shorter,46,1
12.13,  railing,,ShorterOuter,,1
12.13.1,    ,LUMBER 2 X 4,ShorterOuter,39.5,3
12.13.2,    ,LUMBER 1 X 3,ShorterOuter,48,6
12.13.3,    ,LUMBER 2 X 4,ShorterOuter,37.5,1
12.14,  stairBlocker,,Default<As Machined>,,1
12.14.1,    ,LUMBER 2 X 8,Default<As Machined>,48,1
12.15,  bottomLandingHelper,,Default<As Machined>,,1
12.15.1,    ,LUMBER 2 X 4,Default<As Machined>,48,1
12.16,  stairPosts,,Bottom Landing,,2
12.16.1,    ,LUMBER 4 X 4,Bottom Landing,15.5,1
12.17,  stairPosts,,Top Landing,,1
12.17.1,    ,LUMBER 4 X 4,Top Landing,164.19,1
12.18,  stairPosts,,Mid Railing Extended,,1
12.18.1,    ,LUMBER 4 X 4,Mid Railing Extended,117,1
12.19,  stairPosts,,Bottom Railing Extended,,1
12.19.1,    ,LUMBER 4 X 4,Bottom Railing Extended,63.19,1
13,thin_wall_panel,,Default,,12
13.1,  plywood_23-32,,WholeSheet,,1
13.2,  wall2x4,,Default<As Machined>,,4
13.2.1,    ,LUMBER 2 X 4,Default<As Machined>,96,1
14,ladder,,Default<As Machined>,,1
14.1,  ,LUMBER 2 X 4,Default<As Machined>,144,2
14.2,  ,LUMBER 2 X 4,Default<As Machined>,24,12
15,Flag,,Default,,1
16,eyebolt,,Default,,4
16.1,  3018T29,Galvanized Steel Eyebolt with Nut and with Shoulder,3018T29,,1
16.2,  91525A150,316 Stainless Steel Washer,91525A150,,2
17,Cable,,Default,,1
17.1,  3001T83,Clevis and Clevis Turnbuckle,3001T83,,1
18,MirrorCable,,Default,,1
18.1,  Mirror3001T83_Clevis and Clevis Turnbuckle,,3001T83,,1
19,railing,,FortSideShorter,,1
19.1,  ,LUMBER 2 X 4,FortSideShorter,51.5,4
19.2,  ,LUMBER 1 X 3,FortSideShorter,48,8
20,plywood_23-32,,Quarter Inch Plywood,,8
21,wallHorizontalTriangle,,Default<As Machined>,,2
21.1,  ,LUMBER 4 X 4,Default<As Machined>,99.5,1
21.2,  ,LUMBER 2 X 6,Default<As Machined>,124.72,1
21.3,  ,LUMBER 4 X 4,Default<As Machined>,7,1
22,frameWithPlywood,,strong_onepost,,2
22.1,  spinedFrame,,strong<As Machined>,,1
22.1.1,    ,LUMBER 2 X 8,strong<As Machined>,96,2
22.1.2,    ,LUMBER 2 X 6,strong<As Machined>,93,2
22.1.3,    ,LUMBER 2 X 4,strong<As Machined>,45.75,17
22.1.4,    ,LUMBER 2 X 8,strong<As Machined>,93,1
22.1.5,    ,LUMBER 2 X 4,strong<As Machined>,96,1
22.1.6,    ,LUMBER 2 X 4,strong<As Machined>,45.75,1
22.2,  plywood_23-32,,onepost,,2
22.3,  crossBrace,,sidesupportright,,4
22.4,  crossBrace,,sidesupportleft,,4
23,thin_wall_panel,,halfpanel,,2
23.1,  plywood_23-32,,halfsheet,,1
23.2,  wall2x4,,Default<As Machined>,,2
23.2.1,    ,LUMBER 2 X 4,Default<As Machined>,96,1
