*****************************************************************
      SolidWorks Corporation - IGES Processor Status Report
*****************************************************************
=================================================================
General Information
=================================================================
Sending System Product I.D.  : AllCoaster
Receiving System Product I.D.: AllCoaster
File Name                    : C:\Users\kerriewu\Dropbox (MIT)\coaster prelim designs\real stuff\AllCoaster.IGS
Sending System               : SolidWorks 2016
Preprocessor Version         : SolidWorks 2016
File Creation Date           : 170619.191624
Model Creation Date          : 170619.191624
Units                        : IN
Model Space Scale            : 1
Author                       : kerriewu
Organization                 : 


=================================================================
Entity Processing Information
=================================================================


=================================================================
Precision analysis of IGES file:
=================================================================
  Most prevalent number of significant digits:               2
  Highest number of significant digits:                      3
  Average number of significant digits:                2.44898
  Maximum distance to origin:                          35.1159
  Minimum distance to origin:                          35.1159
  Effective number of significant digits:      Unknown


=================================================================
Entity Summary
=================================================================
-----------------------------------------------------------------
Type Name                                         Count Converted
---- ----                                         ----- ---------
100  Arc                                            556       556
102  Composite curve                              11752     11752
110  Line                                         19078     19078
120  Surface of revolution                           84        84
124  Transformation matrix                         3607      3607
126  Rational B-spline curve                      29442     29442
128  Rational B-spline surface                     5702      5702
142  Curve on a parametric surface                 5876      5876
144  Trimmed parametric surface                    5786      5786
308  Subfigure definition                           167       167
314  Color definition                              1121      1121
408  Singular subfigure instance                   3235      3235
_________________________________________________________________


=================================================================
Result Summary
=================================================================
SolidWorks Feature Type                Count
-----------------------                -----
Solid feature(s)                       167
Surface feature(s)                     0
Curve/Sketch feature(s)                0
--------------------------------------------
Start time: Monday, June 19, 2017 19:59:19
Finish time: Monday, June 19, 2017 20:01:50
Processing time: 0 days, 00 hours, 02 mins, 31 secs
